module llprechner

go 1.21

require (
	github.com/dgrijalva/jwt-go v3.2.0+incompatible
	github.com/gorilla/mux v1.8.0
	github.com/joho/godotenv v1.5.1
	gorm.io/driver/mysql v1.5.1
	gorm.io/gorm v1.25.4
)

require (
	ariga.io/atlas-go-sdk v0.0.0-20230709063453-1058d6508503 // indirect
	ariga.io/atlas-provider-gorm v0.1.0 // indirect
	dario.cat/mergo v1.0.0 // indirect
	github.com/bep/godartsass v1.2.0 // indirect
	github.com/bep/godartsass/v2 v2.0.0 // indirect
	github.com/bep/golibsass v1.1.1 // indirect
	github.com/cli/safeexec v1.0.1 // indirect
	github.com/cosmtrek/air v1.45.0 // indirect
	github.com/creack/pty v1.1.18 // indirect
	github.com/fatih/color v1.15.0 // indirect
	github.com/fsnotify/fsnotify v1.6.0 // indirect
	github.com/go-sql-driver/mysql v1.7.0 // indirect
	github.com/gohugoio/hugo v0.118.2 // indirect
	github.com/jackc/pgpassfile v1.0.0 // indirect
	github.com/jackc/pgservicefile v0.0.0-20221227161230-091c0ba34f0a // indirect
	github.com/jackc/pgx/v5 v5.3.1 // indirect
	github.com/jinzhu/inflection v1.0.0 // indirect
	github.com/jinzhu/now v1.1.5 // indirect
	github.com/kisielk/godepgraph v0.0.0-20221115040737-2d0831789458 // indirect
	github.com/mattn/go-colorable v0.1.13 // indirect
	github.com/mattn/go-isatty v0.0.19 // indirect
	github.com/mattn/go-sqlite3 v1.14.17 // indirect
	github.com/pelletier/go-toml v1.9.5 // indirect
	github.com/pelletier/go-toml/v2 v2.1.0 // indirect
	github.com/spf13/afero v1.9.5 // indirect
	github.com/tdewolff/parse/v2 v2.6.8 // indirect
	golang.org/x/crypto v0.12.0 // indirect
	golang.org/x/sys v0.12.0 // indirect
	golang.org/x/text v0.13.0 // indirect
	google.golang.org/protobuf v1.31.0 // indirect
	gorm.io/driver/postgres v1.5.2 // indirect
	gorm.io/driver/sqlite v1.5.2 // indirect
)
